{
    "data":[
      {
      "dayunassigned" : [
          {
            "sceneno": "SC2",
            "sluglineid": "SL1",
            "context": "EXT",
            "setting": "STARBUCKS COFFEE SHOP",
            "Description": "SILENCE -- no sounds on the SoundTacks",
            "sequence": "DAY",
            "castid": ["1", "4"],
            "shootloctaion": "Goa Beach",
            "pages": "5/8",
            "esth": "#"
          },
          {
            "sceneno": "SC4",
            "sluglineid": "SL2",
            "context": "INT",
            "setting": "BANK-CLOSEUP-GABRIEL",
            "Description": "He turns away from window",
            "sequence": "NIGHT",
            "castid": ["3", "4", "5"],
            "shootloctaion": "",
            "pages": "7/8",
            "esth": "#"
          },
          {
            "sceneno": "SC3",
            "sluglineid": "SL3",
            "context": "INT/EXT",
            "setting": "BANK",
            "Description": "Gabriel grabs his cell and dials.",
            "sequence": "SUNRISE",
            "castid": ["2"],
            "shootloctaion": "",
            "pages": "1/8",
            "esth": "#"
          },
          {            
            "sceneno": "SC4",
            "sluglineid": "SL4",
            "context": "INT/EXT",
            "setting": "BANK",
            "Description": "Gabriel grabs his cell and dials.",
            "sequence": "SUNRISE",
            "castid": ["2"],
            "shootloctaion": "",
            "pages": "1/8",
            "esth": "#"
          },
          {
            "sceneno": "SC3",
            "sluglineid": "SL5",
            "context": "INT/EXT",
            "setting": "BANK",
            "Description": "Gabriel grabs his cell and dials.",
            "sequence": "SUNRISE",
            "castid": ["2"],
            "shootloctaion": "",
            "pages": "1/8",
            "esth": "#"
          },
          {
            "sceneno": "SC1",
            "sluglineid": "SL6",
            "context": "INT/EXT",
            "setting": "BANK",
            "Description": "Gabriel grabs his cell and dials.",
            "sequence": "SUNRISE",
            "castid": ["2"],
            "shootloctaion": "",
            "pages": "1/8",
            "esth": "#"
          },
          {
            "sceneno": "SC4",
            "sluglineid": "SL7",
            "context": "INT/EXT",
            "setting": "BANK",
            "Description": "Gabriel grabs his cell and dials.",
            "sequence": "SUNRISE",
            "castid": ["2"],
            "shootloctaion": "",
            "pages": "1/8",
            "esth": "#"
          }
        ]
      }
      
    ]
}